[{"line":1,"elements":[{"line":14,"name":"reading result file","description":"","id":"reading-result-file","type":"scenario","keyword":"Scenario","steps":[{"name":"def data = read(\"classpath:result1.json\")","result":{"duration":78663300,"status":"passed"},"match":{"location":"karate","arguments":[]},"keyword":"*","line":15,"doc_string":{"content_type":"","value":"15:10:03.036 skipping bootstrap configuration: could not find or read file: classpath:karate-config.js","line":15}},{"name":"print data","result":{"duration":579000,"status":"passed"},"match":{"location":"karate","arguments":[]},"keyword":"*","line":16,"doc_string":{"content_type":"","value":"15:10:03.130 [print] {\n  \"data\": [\n    {\n      \"last_name\": \"Lawson\",\n      \"id\": 7,\n      \"avatar\": \"https:\/\/reqres.in\/img\/faces\/7-image.jpg\",\n      \"first_name\": \"Michael\",\n      \"email\": \"michael.lawson@reqres.in\"\n    },\n    {\n      \"last_name\": \"Ferguson\",\n      \"id\": 8,\n      \"avatar\": \"https:\/\/reqres.in\/img\/faces\/8-image.jpg\",\n      \"first_name\": \"Lindsay\",\n      \"email\": \"lindsay.ferguson@reqres.in\"\n    },\n    {\n      \"last_name\": \"Funke\",\n      \"id\": 9,\n      \"avatar\": \"https:\/\/reqres.in\/img\/faces\/9-image.jpg\",\n      \"first_name\": \"Tobias\",\n      \"email\": \"tobias.funke@reqres.in\"\n    },\n    {\n      \"last_name\": \"Fields\",\n      \"id\": 10,\n      \"avatar\": \"https:\/\/reqres.in\/img\/faces\/10-image.jpg\",\n      \"first_name\": \"Byron\",\n      \"email\": \"byron.fields@reqres.in\"\n    },\n    {\n      \"last_name\": \"Edwards\",\n      \"id\": 11,\n      \"avatar\": \"https:\/\/reqres.in\/img\/faces\/11-image.jpg\",\n      \"first_name\": \"George\",\n      \"email\": \"george.edwards@reqres.in\"\n    },\n    {\n      \"last_name\": \"Howell\",\n      \"id\": 12,\n      \"avatar\": \"https:\/\/reqres.in\/img\/faces\/12-image.jpg\",\n      \"first_name\": \"Rachel\",\n      \"email\": \"rachel.howell@reqres.in\"\n    }\n  ],\n  \"page\": 2,\n  \"per_page\": 6,\n  \"support\": {\n    \"text\": \"To keep ReqRes free, contributions towards server costs are appreciated!\",\n    \"url\": \"https:\/\/reqres.in\/#support-heading\"\n  },\n  \"total\": 12,\n  \"total_pages\": 2\n}","line":16}}]}],"name":"src\/test\/java\/featurefiles\/karate16_writing_response_to_file.feature","description":"Karate test suite16\nwriting response to external file","id":"karate-test-suite16","keyword":"Feature","uri":"src\/test\/java\/featurefiles\/karate16_writing_response_to_file.feature"}]