[{"line":1,"elements":[{"line":4,"name":"writing response test case 1","description":"","id":"writing-response-test-case-1","type":"scenario","keyword":"Scenario","steps":[{"name":"def util = Java.type(\"misc.utils\")","result":{"duration":1989200,"status":"passed"},"match":{"location":"karate","arguments":[]},"keyword":"*","line":5,"doc_string":{"content_type":"","value":"16:03:51.072 From karate-config file","line":5}},{"name":"url \"https:\/\/reqres.in\/api\/users?page=2\"","result":{"duration":1223300,"status":"passed"},"match":{"location":"karate","arguments":[]},"keyword":"Given","line":6},{"name":"method get","result":{"duration":240240300,"status":"passed"},"match":{"location":"karate","arguments":[]},"keyword":"When","line":7,"doc_string":{"content_type":"","value":"16:03:51.072 request:\n1 > GET https:\/\/reqres.in\/api\/users?page=2\n1 > Accept-Encoding: gzip,deflate\n1 > Connection: Keep-Alive\n1 > Host: reqres.in\n1 > User-Agent: Apache-HttpClient\/4.5.12 (Java\/1.8.0_251)\n\n16:03:51.307 response time in milliseconds: 238.32\n1 < 200\n1 < Access-Control-Allow-Origin: *\n1 < Age: 3526\n1 < CF-Cache-Status: HIT\n1 < CF-RAY: 61cbf9bf892cd9ac-SIN\n1 < Cache-Control: max-age=14400\n1 < Connection: keep-alive\n1 < Content-Type: application\/json; charset=utf-8\n1 < Date: Fri, 05 Feb 2021 10:33:51 GMT\n1 < Etag: W\/\"406-ut0vzoCuidvyMf8arZpMpJ6ZRDw\"\n1 < Expect-CT: max-age=604800, report-uri=\"https:\/\/report-uri.cloudflare.com\/cdn-cgi\/beacon\/expect-ct\"\n1 < NEL: {\"max_age\":604800,\"report_to\":\"cf-nel\"}\n1 < Report-To: {\"endpoints\":[{\"url\":\"https:\\\/\\\/a.nel.cloudflare.com\\\/report?s=kiHw8OZxxo02C5z02ntQXRsGHY1mW5wT4JCaVgWjtymv7BI3A1PnIQTs7Fkg8l%2BGw6FGf9Ge9HJO%2BGMKq1iAhFUZyMvS8iY%2FS3w%3D\"}],\"max_age\":604800,\"group\":\"cf-nel\"}\n1 < Server: cloudflare\n1 < Set-Cookie: __cfduid=da97106e6c19ed1db9eae81553fa9cf771612521231; expires=Sun, 07-Mar-21 10:33:51 GMT; path=\/; domain=.reqres.in; HttpOnly; SameSite=Lax; Secure\n1 < Transfer-Encoding: chunked\n1 < Vary: Accept-Encoding\n1 < Via: 1.1 vegur\n1 < X-Powered-By: Express\n1 < cf-request-id: 08135a6bb90000d9acb1331000000001\n{\"page\":2,\"per_page\":6,\"total\":12,\"total_pages\":2,\"data\":[{\"id\":7,\"email\":\"michael.lawson@reqres.in\",\"first_name\":\"Michael\",\"last_name\":\"Lawson\",\"avatar\":\"https:\/\/reqres.in\/img\/faces\/7-image.jpg\"},{\"id\":8,\"email\":\"lindsay.ferguson@reqres.in\",\"first_name\":\"Lindsay\",\"last_name\":\"Ferguson\",\"avatar\":\"https:\/\/reqres.in\/img\/faces\/8-image.jpg\"},{\"id\":9,\"email\":\"tobias.funke@reqres.in\",\"first_name\":\"Tobias\",\"last_name\":\"Funke\",\"avatar\":\"https:\/\/reqres.in\/img\/faces\/9-image.jpg\"},{\"id\":10,\"email\":\"byron.fields@reqres.in\",\"first_name\":\"Byron\",\"last_name\":\"Fields\",\"avatar\":\"https:\/\/reqres.in\/img\/faces\/10-image.jpg\"},{\"id\":11,\"email\":\"george.edwards@reqres.in\",\"first_name\":\"George\",\"last_name\":\"Edwards\",\"avatar\":\"https:\/\/reqres.in\/img\/faces\/11-image.jpg\"},{\"id\":12,\"email\":\"rachel.howell@reqres.in\",\"first_name\":\"Rachel\",\"last_name\":\"Howell\",\"avatar\":\"https:\/\/reqres.in\/img\/faces\/12-image.jpg\"}],\"support\":{\"url\":\"https:\/\/reqres.in\/#support-heading\",\"text\":\"To keep ReqRes free, contributions towards server costs are appreciated!\"}}","line":7}},{"name":"status 200","result":{"duration":14600,"status":"passed"},"match":{"location":"karate","arguments":[]},"keyword":"Then","line":8},{"name":"def res = get response","result":{"duration":176800,"status":"passed"},"match":{"location":"karate","arguments":[]},"keyword":"*","line":9},{"name":"print res","result":{"duration":209100,"status":"passed"},"match":{"location":"karate","arguments":[]},"keyword":"*","line":11,"doc_string":{"content_type":"","value":"16:03:51.307 [print] {\n  \"per_page\": 6,\n  \"total\": 12,\n  \"data\": [\n    {\n      \"last_name\": \"Lawson\",\n      \"id\": 7,\n      \"avatar\": \"https:\/\/reqres.in\/img\/faces\/7-image.jpg\",\n      \"first_name\": \"Michael\",\n      \"email\": \"michael.lawson@reqres.in\"\n    },\n    {\n      \"last_name\": \"Ferguson\",\n      \"id\": 8,\n      \"avatar\": \"https:\/\/reqres.in\/img\/faces\/8-image.jpg\",\n      \"first_name\": \"Lindsay\",\n      \"email\": \"lindsay.ferguson@reqres.in\"\n    },\n    {\n      \"last_name\": \"Funke\",\n      \"id\": 9,\n      \"avatar\": \"https:\/\/reqres.in\/img\/faces\/9-image.jpg\",\n      \"first_name\": \"Tobias\",\n      \"email\": \"tobias.funke@reqres.in\"\n    },\n    {\n      \"last_name\": \"Fields\",\n      \"id\": 10,\n      \"avatar\": \"https:\/\/reqres.in\/img\/faces\/10-image.jpg\",\n      \"first_name\": \"Byron\",\n      \"email\": \"byron.fields@reqres.in\"\n    },\n    {\n      \"last_name\": \"Edwards\",\n      \"id\": 11,\n      \"avatar\": \"https:\/\/reqres.in\/img\/faces\/11-image.jpg\",\n      \"first_name\": \"George\",\n      \"email\": \"george.edwards@reqres.in\"\n    },\n    {\n      \"last_name\": \"Howell\",\n      \"id\": 12,\n      \"avatar\": \"https:\/\/reqres.in\/img\/faces\/12-image.jpg\",\n      \"first_name\": \"Rachel\",\n      \"email\": \"rachel.howell@reqres.in\"\n    }\n  ],\n  \"page\": 2,\n  \"total_pages\": 2,\n  \"support\": {\n    \"text\": \"To keep ReqRes free, contributions towards server costs are appreciated!\",\n    \"url\": \"https:\/\/reqres.in\/#support-heading\"\n  }\n}","line":11}},{"name":"util.writeToFile(\"result1.json\",res)","result":{"duration":2434400,"status":"passed"},"match":{"location":"karate","arguments":[]},"keyword":"*","line":12,"doc_string":{"content_type":"","value":"16:03:51.307 after scenario inside config","line":12}}]},{"line":14,"name":"reading result file","description":"","id":"reading-result-file","type":"scenario","keyword":"Scenario","steps":[{"name":"def data = read(\"classpath:result1.json\")","result":{"duration":4843700,"status":"passed"},"match":{"location":"karate","arguments":[]},"keyword":"*","line":15,"doc_string":{"content_type":"","value":"16:03:51.072 From karate-config file","line":15}},{"name":"print data","result":{"duration":901000,"status":"passed"},"match":{"location":"karate","arguments":[]},"keyword":"*","line":16,"doc_string":{"content_type":"","value":"16:03:51.088 [print] {\n  \"per_page\": 6,\n  \"total\": 12,\n  \"data\": [\n    {\n      \"last_name\": \"Lawson\",\n      \"id\": 7,\n      \"avatar\": \"https:\/\/reqres.in\/img\/faces\/7-image.jpg\",\n      \"first_name\": \"Michael\",\n      \"email\": \"michael.lawson@reqres.in\"\n    },\n    {\n      \"last_name\": \"Ferguson\",\n      \"id\": 8,\n      \"avatar\": \"https:\/\/reqres.in\/img\/faces\/8-image.jpg\",\n      \"first_name\": \"Lindsay\",\n      \"email\": \"lindsay.ferguson@reqres.in\"\n    },\n    {\n      \"last_name\": \"Funke\",\n      \"id\": 9,\n      \"avatar\": \"https:\/\/reqres.in\/img\/faces\/9-image.jpg\",\n      \"first_name\": \"Tobias\",\n      \"email\": \"tobias.funke@reqres.in\"\n    },\n    {\n      \"last_name\": \"Fields\",\n      \"id\": 10,\n      \"avatar\": \"https:\/\/reqres.in\/img\/faces\/10-image.jpg\",\n      \"first_name\": \"Byron\",\n      \"email\": \"byron.fields@reqres.in\"\n    },\n    {\n      \"last_name\": \"Edwards\",\n      \"id\": 11,\n      \"avatar\": \"https:\/\/reqres.in\/img\/faces\/11-image.jpg\",\n      \"first_name\": \"George\",\n      \"email\": \"george.edwards@reqres.in\"\n    },\n    {\n      \"last_name\": \"Howell\",\n      \"id\": 12,\n      \"avatar\": \"https:\/\/reqres.in\/img\/faces\/12-image.jpg\",\n      \"first_name\": \"Rachel\",\n      \"email\": \"rachel.howell@reqres.in\"\n    }\n  ],\n  \"page\": 2,\n  \"total_pages\": 2,\n  \"support\": {\n    \"text\": \"To keep ReqRes free, contributions towards server costs are appreciated!\",\n    \"url\": \"https:\/\/reqres.in\/#support-heading\"\n  }\n}16:03:51.088 after scenario inside config","line":16}}]}],"name":"featurefiles\/karate16_writing_response_to_file.feature","description":"Karate test suite16\nwriting response to external file","id":"karate-test-suite16","keyword":"Feature","uri":"featurefiles\/karate16_writing_response_to_file.feature"}]